<?xml version="1.0" encoding="UTF-8" standalone="no"?>
<svg
   xmlns:dc="http://purl.org/dc/elements/1.1/"
   xmlns:cc="http://creativecommons.org/ns#"
   xmlns:rdf="http://www.w3.org/1999/02/22-rdf-syntax-ns#"
   xmlns:svg="http://www.w3.org/2000/svg"
   xmlns="http://www.w3.org/2000/svg"
   id="svg8"
   version="1.1"
   viewBox="0 0 33.866666 33.866668"
   height="128"
   width="128">
  <defs
     id="defs2" />
  <metadata
     id="metadata5">
    <rdf:RDF>
      <cc:Work
         rdf:about="">
        <dc:format>image/svg+xml</dc:format>
        <dc:type
           rdf:resource="http://purl.org/dc/dcmitype/StillImage" />
        <dc:title></dc:title>
      </cc:Work>
    </rdf:RDF>
  </metadata>
  <g
     transform="translate(0,-263.13332)"
     id="layer1">
    <path
       id="rect5069"
       d="m 3.7462004,268.26427 -0.080098,5.90145 5.9009317,5.90093 -5.9009317,5.90093 0.080098,5.90145 5.9009317,-5.90145 5.9014489,-5.90093 -5.9014489,-5.90093 z"
       style="fill:#2a90fa;fill-opacity:1;stroke:#000000;stroke-width:1;stroke-opacity:1" />
    <path
       id="rect5069-6"
       d="m 18.194414,268.26427 -0.08061,5.90145 5.901448,5.90093 -5.901448,5.90093 0.08061,5.90145 5.900932,-5.90145 5.900931,-5.90093 -5.900931,-5.90093 z"
       style="fill:#2a90fa;fill-opacity:1;stroke:#000000;stroke-width:1;stroke-opacity:1" />
  </g>
</svg>
